<?xml version="1.0" encoding="UTF-8"?>
<svg width="74px" height="58px" viewBox="0 0 74 58" version="1.1" xmlns="http://www.w3.org/2000/svg" xmlns:xlink="http://www.w3.org/1999/xlink">
    <!-- Generator: Sketch 53.2 (72643) - https://sketchapp.com -->
    <title>icon-security</title>
    <desc>Created with Sketch.</desc>
    <g id="Source" stroke="none" stroke-width="1" fill="none" fill-rule="evenodd">
        <g id="index" transform="translate(-1091.000000, -2178.000000)" fill="#20C997">
            <g id="how" transform="translate(120.000000, 1986.000000)">
                <g id="3" transform="translate(816.000000, 152.000000)">
                    <path d="M219.692419,40 C221.833589,40 223.57558,41.7419908 223.575724,43.8831609 L223.575724,61.0686399 C223.575724,61.7531738 223.020739,62.3080141 222.33635,62.3080141 C221.651816,62.3080141 221.096975,61.7530295 221.096975,61.0686399 L221.096975,43.8831609 C221.096975,43.1086061 220.466973,42.4786041 219.692419,42.4786041 L158.883161,42.4786041 C158.108606,42.4786041 157.478604,43.1086061 157.478604,43.8831609 L157.478604,83.5411153 C157.478604,84.3156701 158.108606,84.9456721 158.883161,84.9456721 L201.185191,84.9456721 C201.869724,84.9456721 202.424565,85.5005124 202.424565,86.1850463 C202.424565,86.8695801 201.86958,87.4244205 201.185191,87.4244205 L158.883161,87.4244205 C156.741991,87.4244205 155,85.6824296 155,83.5412596 L155,43.8831609 C155,41.7419908 156.741991,40 158.883161,40 L219.692419,40 Z M176.068351,49.2535419 C177.480698,49.2535419 178.629619,50.4024624 178.629763,51.8148095 L178.629763,59.7464581 C178.629763,61.1588051 177.480843,62.3077256 176.068496,62.3077256 L165.492916,62.3077256 C164.080569,62.3077256 162.931649,61.1588051 162.931649,59.7464581 L162.931649,51.8148095 C162.931649,50.4024624 164.080569,49.2535419 165.492916,49.2535419 L176.068351,49.2535419 Z M168.219366,59.8291215 L168.219366,51.7321461 L165.492916,51.7321461 C165.447329,51.7321461 165.410253,51.769222 165.410253,51.8148095 L165.410253,59.7464581 C165.410253,59.7920456 165.447329,59.8291215 165.492916,59.8291215 L168.219366,59.8291215 Z M176.151015,59.7464581 L176.151015,51.8148095 C176.151015,51.769222 176.113939,51.7321461 176.068351,51.7321461 L170.69797,51.7321461 L170.69797,54.5412596 L172.102527,54.5412596 C172.787061,54.5412596 173.341901,55.0960999 173.341901,55.7806338 C173.341901,56.4651676 172.786917,57.020008 172.102527,57.020008 L170.69797,57.020008 L170.69797,59.8291215 L176.068351,59.8291215 C176.113939,59.8291215 176.151015,59.7920456 176.151015,59.7464581 Z M208.45582,47.9316486 C212.419336,47.9316486 215.643931,51.1562432 215.643931,55.1197592 C215.643931,59.0832753 212.419336,62.3078699 208.45582,62.3078699 C207.038713,62.3078699 205.658536,61.8871953 204.487976,61.1122077 C203.350741,61.866854 201.988165,62.3078699 200.524172,62.3078699 C196.560656,62.3078699 193.336061,59.0832753 193.336061,55.1197592 C193.336061,51.1562432 196.560656,47.9316486 200.524172,47.9316486 C201.944453,47.9316486 203.322898,48.3508805 204.493314,49.1265894 C205.630116,48.3723759 206.992259,47.9316486 208.45582,47.9316486 Z M202.631872,59.3292458 C201.754024,58.1152622 201.267854,56.6478062 201.26771,55.1197592 C201.26771,53.5485773 201.775808,52.0945379 202.634613,50.9104169 C201.984703,50.5845239 201.263237,50.410397 200.524172,50.410397 C197.927415,50.410397 195.814809,52.5230027 195.814809,55.1197592 C195.814809,57.7165158 197.927415,59.8291215 200.524172,59.8291215 C201.281703,59.8291215 201.99711,59.6483584 202.631872,59.3292458 Z M208.45582,59.8291215 C211.052721,59.8291215 213.165038,57.7165158 213.165038,55.1197592 C213.165038,52.5230027 211.052433,50.410397 208.455676,50.410397 C205.85892,50.410397 203.746314,52.5230027 203.746314,55.1197592 C203.746314,56.0294896 204.00974,56.9061835 204.489275,57.6557805 C204.959576,56.9232066 205.233534,56.0530047 205.233534,55.1197592 C205.233534,54.4352254 205.788519,53.880385 206.472908,53.880385 C207.157442,53.880385 207.712282,54.4353696 207.712282,55.1197592 C207.712282,56.6909412 207.204184,58.1446921 206.345523,59.3288131 C206.995866,59.6545617 207.718053,59.8291215 208.45582,59.8291215 Z M174.746458,69.0826634 C175.430848,69.0826634 175.985832,69.6375037 175.985688,70.3220376 C175.985688,71.0065715 175.430703,71.5614118 174.746314,71.5614118 L164.170879,71.5614118 C163.486345,71.5614118 162.931504,71.0064272 162.931504,70.3220376 C162.931504,69.6375037 163.486489,69.0826634 164.170879,69.0826634 L174.746458,69.0826634 Z M202.507228,77.014312 C203.191618,77.014312 203.746458,77.5691523 203.746458,78.2536862 C203.746458,78.9382201 203.191473,79.4930604 202.507084,79.4930604 L164.170879,79.4930604 C163.486345,79.4930604 162.931504,78.9380758 162.931504,78.2536862 C162.931504,77.5691523 163.486489,77.014312 164.170879,77.014312 L202.507228,77.014312 Z M190.609755,69.0826634 C191.294145,69.0826634 191.848985,69.6375037 191.848985,70.3220376 C191.848985,71.0065715 191.294001,71.5614118 190.609611,71.5614118 L180.034176,71.5614118 C179.349642,71.5614118 178.794802,71.0064272 178.794802,70.3220376 C178.794802,69.6375037 179.349786,69.0826634 180.034176,69.0826634 L190.609755,69.0826634 Z M203.829121,69.0826634 C204.513511,69.0826634 205.068351,69.6375037 205.068496,70.3220376 C205.068496,71.0065715 204.513511,71.5614118 203.829121,71.5614118 L195.897473,71.5614118 C195.212939,71.5614118 194.658099,71.0064272 194.658099,70.3220376 C194.658099,69.6375037 195.213083,69.0826634 195.897473,69.0826634 L203.829121,69.0826634 Z M226.219366,78.5400507 C227.754482,79.0586807 228.863297,80.5114217 228.863297,82.2193662 L228.863297,94.1168391 C228.863297,96.2580092 227.121306,98 224.980136,98 L209.116839,98 C206.975669,98 205.233678,96.2580092 205.233678,94.1168391 L205.233678,82.2193662 C205.233678,80.5114217 206.342493,79.0585365 207.877609,78.5400507 L207.877609,72.9658243 C207.877609,67.9089295 211.991593,63.7949458 217.048488,63.7949458 C222.105383,63.7949458 226.219366,67.9089295 226.219366,72.9658243 L226.219366,78.5400507 Z M210.356213,72.9658243 L210.356069,72.9658243 L210.356069,78.3362054 L223.740762,78.3362054 L223.740762,72.9658243 C223.740762,69.275689 220.738623,66.2735499 217.048488,66.2735499 C213.358352,66.2735499 210.356213,69.275689 210.356213,72.9658243 Z M226.384693,94.1168391 L226.384693,82.2193662 C226.384693,81.4448115 225.754691,80.8148095 224.980136,80.8148095 L209.116839,80.8148095 C208.342284,80.8148095 207.712282,81.4448115 207.712282,82.2193662 L207.712282,94.1168391 C207.712282,94.8913939 208.342284,95.5213959 209.116839,95.5213959 L224.980136,95.5213959 C225.754691,95.5213959 226.384693,94.8913939 226.384693,94.1168391 Z M217.048488,83.623923 C218.825102,83.623923 220.27063,85.0694508 220.270774,86.8462093 C220.270774,88.1839717 219.451209,89.333325 218.287862,89.8199284 L218.287862,91.4730524 C218.287862,92.1575863 217.733022,92.7124266 217.048488,92.7124266 C216.363954,92.7124266 215.809114,92.157442 215.809114,91.4730524 L215.809114,89.8199284 C214.645767,89.333325 213.826201,88.1839717 213.826201,86.8462093 C213.826201,85.0694508 215.271873,83.623923 217.048488,83.623923 Z M217.048488,87.5897473 C217.458487,87.5897473 217.792026,87.2560641 217.792026,86.8462093 C217.792026,86.4363546 217.458342,86.1026714 217.048488,86.1026714 C216.638633,86.1026714 216.30495,86.4362103 216.30495,86.8462093 C216.30495,87.2560641 216.638489,87.5897473 217.048488,87.5897473 Z" id="icon-security"></path>
                </g>
            </g>
        </g>
    </g>
</svg>