0000000010;0909;Иванов;Иван;Иванович;01.01.1980;89109101111;123@mail.ru;0.00;1;
0000000011;0910;Петров;Петр;Петрович;01.01.1981;89109101112;1234@mail.ru;0.00;1;
0000000012;0911;;;;..;;;0.00;1;
0000000013;0912;;;;..;;;0.00;1;